<svg xmlns="http://www.w3.org/2000/svg" width="18" height="9.748" viewBox="0 0 18 9.748">
  <path id="_8686991_ic_fluent_chevron_left_regular_icon" data-name="8686991_ic_fluent_chevron_left_regular_icon" d="M9.529.221a.75.75,0,0,0-1.061,0L.243,8.416a.825.825,0,0,0,0,1.169l8.226,8.2a.75.75,0,1,0,1.059-1.062L1.781,9,9.528,1.281A.75.75,0,0,0,9.529.221Z" transform="translate(18) rotate(90)" fill="#333"/>
</svg>
