<svg xmlns="http://www.w3.org/2000/svg" width="9.584" height="9.584" viewBox="0 0 9.584 9.584">
  <g id="Grupo_2640" data-name="Grupo 2640" transform="translate(0.5 0.5)" opacity="0.4">
    <line id="Linha_313" data-name="Linha 313" y2="8.584" transform="translate(4.292)" fill="none" stroke="#333" stroke-linecap="round" stroke-width="1"/>
    <line id="Linha_314" data-name="Linha 314" y1="8.584" transform="translate(8.584 4.292) rotate(90)" fill="none" stroke="#333" stroke-linecap="round" stroke-width="1"/>
  </g>
</svg>
