<svg xmlns="http://www.w3.org/2000/svg" width="10" height="5.416" viewBox="0 0 10 5.416">
  <path id="_8686991_ic_fluent_chevron_left_regular_icon" data-name="8686991_ic_fluent_chevron_left_regular_icon" d="M5.295.123a.417.417,0,0,0-.589,0L.135,4.675a.458.458,0,0,0,0,.649l4.57,4.554a.417.417,0,1,0,.588-.59L.99,5,5.293.712A.417.417,0,0,0,5.295.123Z" transform="translate(0 5.416) rotate(-90)" fill="#fff"/>
</svg>
