<svg xmlns="http://www.w3.org/2000/svg" width="9.748" height="18" viewBox="0 0 9.748 18">
  <path id="_8686991_ic_fluent_chevron_left_regular_icon" data-name="8686991_ic_fluent_chevron_left_regular_icon" d="M15.53,21.778a.75.75,0,0,1-1.061,0l-8.226-8.2a.825.825,0,0,1,0-1.169l8.226-8.2A.75.75,0,1,1,15.529,5.28L7.782,13l7.746,7.719A.75.75,0,0,1,15.53,21.778Z" transform="translate(15.749 21.999) rotate(180)" fill="#fff"/>
</svg>
