<svg xmlns="http://www.w3.org/2000/svg" width="5.676" height="10.335" viewBox="0 0 5.676 10.335">
  <g id="Grupo_2329" data-name="Grupo 2329" transform="translate(5.323 0.354) rotate(90)">
    <line id="Linha_325" data-name="Linha 325" y1="4.969" x2="4.969" transform="translate(0 0)" fill="none" stroke="#fff" stroke-width="1"/>
    <line id="Linha_326" data-name="Linha 326" x2="4.969" y2="4.969" transform="translate(4.659 0)" fill="none" stroke="#fff" stroke-width="1"/>
  </g>
</svg>
