<svg xmlns="http://www.w3.org/2000/svg" width="11.763" height="7.153" viewBox="0 0 11.763 7.153">
  <path id="Caminho_3583" data-name="Caminho 3583" d="M-12799.1-12578.348l3.045,3.732,8.028-6.064" transform="translate(12799.489 12581.079)" fill="none" stroke="#78ce81" stroke-width="1"/>
</svg>
