<svg xmlns="http://www.w3.org/2000/svg" width="18" height="11.642" viewBox="0 0 18 11.642">
  <g id="_8687167_ic_fluent_eye_show_regular_icon" data-name="8687167_ic_fluent_eye_show_regular_icon" transform="translate(-2.27 -5)">
    <path id="Caminho_3606" data-name="Caminho 3606" d="M3.422,12.686a8.118,8.118,0,0,1,7.848-6.522,8.118,8.118,0,0,1,7.848,6.522.582.582,0,0,0,1.14-.238A9.282,9.282,0,0,0,11.269,5a9.282,9.282,0,0,0-8.988,7.449.582.582,0,1,0,1.14.238Z" fill="#333"/>
    <path id="Caminho_3607" data-name="Caminho 3607" d="M10.575,8a4.075,4.075,0,1,0,4.075,4.075A4.075,4.075,0,0,0,10.575,8ZM7.664,12.075a2.911,2.911,0,1,1,2.911,2.911A2.911,2.911,0,0,1,7.664,12.075Z" transform="translate(0.695 0.493)" fill="#333"/>
  </g>
</svg>
