<svg id="Grupo_2939" data-name="Grupo 2939" xmlns="http://www.w3.org/2000/svg" xmlns:xlink="http://www.w3.org/1999/xlink" width="17.798" height="18.039" viewBox="0 0 17.798 18.039">
  <defs>
    <clipPath id="clip-path">
      <rect id="Retângulo_2005" data-name="Retângulo 2005" width="17.798" height="18.039" fill="#ffffff" opacity="1"/>
    </clipPath>
  </defs>
  <g id="Grupo_2938" data-name="Grupo 2938" clip-path="url(#clip-path)">
    <path id="Caminho_3799" data-name="Caminho 3799" d="M.672,4.671H15.511L13.375,6.839a.681.681,0,0,0,0,.956.67.67,0,0,0,.953,0L17.6,4.472a.686.686,0,0,0,0-.956L14.327.193a.684.684,0,0,0-.953,0,.681.681,0,0,0,0,.956l2.137,2.168H.672a.677.677,0,0,0,0,1.354" fill="#ffffff" opacity="1"/>
    <path id="Caminho_3800" data-name="Caminho 3800" d="M17.126,12.208H2.287l2.136-2.167a.681.681,0,0,0,0-.957.668.668,0,0,0-.951,0L.2,12.407a.687.687,0,0,0,0,.956l3.277,3.323a.668.668,0,0,0,.951,0,.681.681,0,0,0,0-.956L2.287,13.562H17.126a.677.677,0,0,0,0-1.354" transform="translate(0 1.154)" fill="#ffffff" opacity="1"/>
  </g>
</svg>
