<svg xmlns="http://www.w3.org/2000/svg" width="18" height="18" viewBox="0 0 18 18">
  <g id="_7148755_user_avatar_profile_person_people_icon" data-name="7148755_user_avatar_profile_person_people_icon" transform="translate(0 0)">
    <path id="Caminho_3616" data-name="Caminho 3616" d="M14.136,9.929a4.773,4.773,0,0,1-4.7-4.84,4.7,4.7,0,1,1,9.405,0,4.778,4.778,0,0,1-4.7,4.84Zm0-8.18A3.294,3.294,0,0,0,10.89,5.09a3.247,3.247,0,1,0,6.49,0,3.3,3.3,0,0,0-3.245-3.34Z" transform="translate(-5.136 -0.249)" fill="#ffffff" opacity="1"/>
    <path id="Caminho_3617" data-name="Caminho 3617" d="M19.53,28.99a.742.742,0,0,1-.727-.622,7.519,7.519,0,0,0-7.533-6.517,7.519,7.519,0,0,0-7.533,6.517.74.74,0,0,1-.854.611.749.749,0,0,1-.6-.867,8.965,8.965,0,0,1,8.989-7.761,8.965,8.965,0,0,1,8.989,7.761.749.749,0,0,1-.6.866.7.7,0,0,1-.126.011Z" transform="translate(-2.271 -10.99)" fill="#ffffff" opacity="1"/>
  </g>
</svg>
