<svg xmlns="http://www.w3.org/2000/svg" width="16.801" height="16.781" viewBox="0 0 16.801 16.781">
  <g id="Grupo_2527" data-name="Grupo 2527" opacity="1">
    <path id="Caminho_3794" data-name="Caminho 3794" d="M172.241,112.306a3.162,3.162,0,1,0,3.163,3.163A3.167,3.167,0,0,0,172.241,112.306Zm0,5.141a1.989,1.989,0,1,1,1.988-1.989A1.991,1.991,0,0,1,172.241,117.447Z" transform="translate(-169.078 -112.306)" fill="#888888" opacity="1"/>
    <path id="Caminho_3795" data-name="Caminho 3795" d="M182.72,122.762l-.005-.1v.1a3.162,3.162,0,1,0,.005,0Zm-.005,5.167h-.1v-.007a1.908,1.908,0,1,1,.1.007Z" transform="translate(-169.078 -112.306)" fill="#888888" opacity="1"/>
    <path id="Caminho_3796" data-name="Caminho 3796" d="M185.021,114a.605.605,0,0,0,0-.84.6.6,0,0,0-.832,0L169.937,127.4a.59.59,0,0,0,0,.831.6.6,0,0,0,.832,0Z" transform="translate(-169.078 -112.306)" fill="#888888" opacity="1"/>
  </g>
</svg>
