<?xml version="1.0" encoding="UTF-8"?>
<svg id="Camada_2" data-name="Camada 2" xmlns="http://www.w3.org/2000/svg" viewBox="0 0 24.09 23.84">
  <defs>
    <style>
      .cls-1 {
        fill: #ffffff;
        stroke-width: 0px;
        opacity: 1;
      }
    </style>
  </defs>
  <g id="Camada_1-2" data-name="Camada 1">
    <path class="cls-1" d="m24.06,11.93l-1.56-4.85v-.02c-.03-.08-.08-.16-.13-.22-.03-.03-.06-.07-.1-.09-.01-.02-.03-.03-.05-.04-.01-.01-.02-.02-.03-.02-.02-.02-.04-.03-.06-.04l-2.98-1.26v-2c0-.27-.15-.5-.39-.6L12.3.05c-.17-.07-.35-.07-.51,0l-6.46,2.74c-.24.1-.4.33-.4.6v2l-2.87,1.22s-.09.03-.13.05c-.09.04-.17.1-.23.18-.02.02-.04.06-.06.09-.02.04-.04.08-.05.12l-.02.05L.03,11.93c-.11.32.05.67.36.8l1.16.49v5.79c0,.27.16.5.4.6l9.82,4.16c.08.04.17.06.27.06s.18-.02.26-.06l9.83-4.17c.24-.1.4-.33.4-.6v-5.79l1.16-.49c.31-.13.47-.48.37-.8Zm-22.51-.5l1.06-3.3.25.11,2.07.88.65.27.65.28,5.01,2.13-.28.89-.2.62-.2.62-.48,1.5-7.22-3.06-1.31-.55-.11-.05.11-.34Zm14.8-5.82l1.5-.63v3.29l-5.16,2.19v-3.3l3.66-1.55Zm.48-1.62l-.48.21h-.01l-1.66.7h-.01l-2.63,1.12-2.63-1.11-1.67-.71-.49-.21-.71-.3,5.5-2.34,5.5,2.34-.71.3Zm-10.6.98l1.51.64,3.65,1.55v3.29l-5.16-2.19v-3.29Zm7.77,10.46l-.48-1.5-.2-.62-.2-.62-.28-.89,5.01-2.12.65-.28.65-.27,2.08-.88.25-.11,1.05,3.29v.39l-1.3.55-7.23,3.06Zm6.23-8.17l-1.08.46v-.92l1.08.46Zm-15.3-.46v.9l-1.06-.45,1.06-.45Zm-2.07,11.78v-4.8l7.37,3.12c.08.03.17.05.25.05.09,0,.19-.02.27-.06.17-.07.29-.22.35-.39l.29-.9h0s0,6.6,0,6.6h0s-8.53-3.62-8.53-3.62Zm18.37,0l-8.54,3.62v-6.59l.29.89c.06.17.19.32.35.39.09.04.18.06.27.06s.18-.02.26-.05l7.37-3.13v4.81Z"/>
  </g>
</svg>