<svg xmlns="http://www.w3.org/2000/svg" width="18" height="18" viewBox="0 0 18 18">
  <path id="_8687727_ic_fluent_search_regular_icon" data-name="8687727_ic_fluent_search_regular_icon" d="M10.071,3a7.072,7.072,0,0,1,5.434,11.6L20.812,19.9a.643.643,0,0,1-.82.984l-.089-.074L14.6,15.506A7.072,7.072,0,1,1,10.071,3Zm0,1.286a5.786,5.786,0,1,0,5.786,5.786A5.786,5.786,0,0,0,10.071,4.286Z" transform="translate(-3 -3)" fill="#fff"/>
</svg>
