<svg xmlns="http://www.w3.org/2000/svg" width="68" height="68" viewBox="0 0 68 68">
  <g id="Grupo_2417" data-name="Grupo 2417" transform="translate(-917 -169)">
    <g id="Retângulo_1809" data-name="Retângulo 1809" transform="translate(917 169)" fill="none" stroke="#f44848" stroke-width="2">
      <rect width="68" height="68" rx="5" stroke="none"/>
      <rect x="1" y="1" width="66" height="66" rx="4" fill="none"/>
    </g>
    <path id="_8686649_ic_fluent_arrow_export_up_icon" data-name="8686649_ic_fluent_arrow_export_up_icon" d="M16.216,2.317a1.082,1.082,0,0,1,1.53,0L26.4,10.971a1.082,1.082,0,0,1-1.53,1.53L18.063,5.693v23.35a1.082,1.082,0,0,1-2.164,0V5.693L9.092,12.5a1.082,1.082,0,0,1-1.53-1.53ZM4,35.534a1.082,1.082,0,0,1,1.082-1.082h23.8a1.082,1.082,0,0,1,0,2.164H5.082A1.082,1.082,0,0,1,4,35.534Z" transform="translate(934 184)" fill="#f44848"/>
  </g>
</svg>
