<svg xmlns="http://www.w3.org/2000/svg" width="17.916" height="16" viewBox="0 0 17.916 16">
  <path id="Caminho_3794" data-name="Caminho 3794" d="M33.663,37.094,26.632,24.935a1.92,1.92,0,0,0-3.328,0h0L16.274,37.094a1.912,1.912,0,0,0,1.656,2.88H32.008a1.912,1.912,0,0,0,1.656-2.88Zm-9.335-6.719a.64.64,0,0,1,1.28,0v3.2a.64.64,0,0,1-1.28,0Zm.64,7.039a.96.96,0,1,1,.96-.96A.96.96,0,0,1,24.969,37.414Z" transform="translate(-16.011 -23.973)" fill="#ff9200"/>
</svg>
